Appendix
…
Load Covid mortality

html_covid_rates <- read_html("https://www.statista.com/statistics/1104709/coronavirus-deaths-worldwide-per-million-inhabitants/")
tab_covid_rates_raw <- (html_covid_rates |> html_nodes("table"))[[1]] |> html_table()
df_covid_rates <- tab_covid_rates_raw |>
  mutate(Total_cases= as.numeric(gsub(",", "", `Confirmed cases (absolute)`)),
         Total_deaths=as.numeric(gsub(",", "", `Confirmed deaths (absolute)`)), 
         Pop_millions= as.numeric(gsub(",", "", `Population (in millions)`)), 
         Country=Characteristic) |>
  select(Country, Total_cases, Total_deaths, Pop_millions)

df_covid_rates

## # A tibble: 154 × 4
##    Country                Total_cases Total_deaths Pop_millions
##    <chr>                        <dbl>        <dbl>        <dbl>
##  1 Peru                       3691213       213714        33.0 
##  2 Bulgaria                   1180636        37279         6.93
##  3 Bosnia and Herzegovina      379982        15810         3.28
##  4 Hungary                    1932788        46661         9.75
##  5 Georgia                    1662299        16844         3.71
##  6 North Macedonia             316729         9337         2.07
##  7 Moldova                     521182        11570         2.62
##  8 Croatia                    1160253        16124         4.05
##  9 Czechia                    3943792        40334        10.7 
## 10 Slovakia                   2559088        20163         5.46
## # … with 144 more rows

Load vaccination counts

url <- getURL("https://covid.ourworldindata.org/data/owid-covid-data.csv")
tab_vax_rates_raw <- read.csv(text = url)
df_vax_rates <- tab_vax_rates_raw |>
  select(location, date, people_fully_vaccinated, continent) |>
  filter(!is.na(people_fully_vaccinated)) |>
  group_by(location, continent) |>
  summarise(fully_vax_count= max(people_fully_vaccinated)) |>
  rename(Country =location, Continent=continent) 

df_vax_rates

## # A tibble: 235 × 3
## # Groups:   Country [235]
##    Country             Continent       fully_vax_count
##    <chr>               <chr>                     <dbl>
##  1 Afghanistan         "Asia"                 10615628
##  2 Africa              ""                    373098255
##  3 Albania             "Europe"                1269112
##  4 Algeria             "Africa"                6481186
##  5 Andorra             "Europe"                  53485
##  6 Angola              "Africa"                8193976
##  7 Anguilla            "North America"           10373
##  8 Antigua and Barbuda "North America"           62384
##  9 Argentina           "South America"        37889928
## 10 Armenia             "Asia"                   985807
## # … with 225 more rows

Load proportion of the population above 65

html_above_65 <- read_html("https://en.wikipedia.org/wiki/List_of_countries_by_age_structure")
tab_above_65_raw <- html_table(html_node(html_above_65, ".wikitable"), fill = T)
colnames(tab_above_65_raw) <- tab_above_65_raw[1, ] 

df_above_65<- tab_above_65_raw[-c(1,2),] |>
  select(Country, `Over 65`) |>
  rename(Percent_Over_65 =`Over 65`) |>
  mutate(Percent_Over_65= parse_number(Percent_Over_65))

df_above_65

## # A tibble: 190 × 2
##    Country             Percent_Over_65
##    <chr>                         <dbl>
##  1 Albania                       13.0 
##  2 Algeria                        6.17
##  3 Angola                         2.3 
##  4 Antigua and Barbuda            8.91
##  5 Argentina                     12.1 
##  6 Armenia                       12.6 
##  7 Aruba (Netherlands)           15.0 
##  8 Australia                     15.9 
##  9 Austria                       19.9 
## 10 Azerbaijan                     7.29
## # … with 180 more rows

Load Population density

html_pop_density <- read_html("https://en.wikipedia.org/wiki/List_of_countries_and_dependencies_by_population_density")
tab_pop_density_raw <- html_table(html_node(html_pop_density, ".wikitable"), fill = T)
colnames(tab_pop_density_raw) <- tab_pop_density_raw[1, ]

df_pop_density <- tab_pop_density_raw[-1,] |>
  select(`Country, territory or dependency`, `/km2`) |>
  rename(Country =`Country, territory or dependency`, km2 = `/km2`) |>
  mutate(km2= as.numeric(gsub(",", "", km2)))

df_pop_density

## # A tibble: 250 × 2
##    Country                      km2
##    <chr>                      <dbl>
##  1 Macau                      20806
##  2 Monaco                     18343
##  3 Singapore                   7617
##  4 Hong Kong                   6789
##  5 Gibraltar (BOT)             5445
##  6 Bahrain                     1864
##  7 Maldives                    1738
##  8 Malta                       1667
##  9 Sint Maarten (Netherlands)  1295
## 10 Bermuda (BOT)               1211
## # … with 240 more rows
Load GDP per capita

html_GDP_per_capita <- read_html("https://en.wikipedia.org/wiki/List_of_countries_by_GDP_(nominal)_per_capita")
tab_GDP_per_capita_raw <- html_table(html_node(html_GDP_per_capita, ".wikitable"), fill = T)
colnames(tab_GDP_per_capita_raw) <- tab_GDP_per_capita_raw[1, ]

df_GDP_per_capita <- (tab_GDP_per_capita_raw[-1,] |>
  select(`Country/Territory`, 5) |>
  rename(Country=`Country/Territory`, GDP_per_capita = Estimate)|>
  mutate(GDP_per_capita= as.numeric(gsub(",", "", GDP_per_capita)),
         Country= str_trim(gsub("\\*", "", Country) ) ))[-1,]

df_GDP_per_capita

## # A tibble: 223 × 2
##    Country        GDP_per_capita
##    <chr>                   <dbl>
##  1 Liechtenstein          169049
##  2 Monaco                 173688
##  3 Luxembourg             135683
##  4 Bermuda                110870
##  5 Ireland                 99152
##  6 Norway                  89203
##  7 Switzerland             93457
##  8 Isle of Man             86482
##  9 Cayman Islands          85347
## 10 Qatar                   61276
## # … with 213 more rows

Load obesity rates

html_obesity_rates <- read_html("https://en.wikipedia.org/wiki/List_of_sovereign_states_by_obesity_rate")
tab_obesity_rates_raw <- html_table(html_node(html_obesity_rates, ".wikitable"), fill = T)

df_obesity_rates <- tab_obesity_rates_raw |>
  rename(Obesity_rate=`Obesity rate (%)`)

df_obesity_rates

## # A tibble: 191 × 2
##    Country                        Obesity_rate
##    <chr>                                 <dbl>
##  1 United States                          36.2
##  2 Cook Islands                           55.9
##  3 Palau                                  55.3
##  4 Marshall Islands                       52.9
##  5 Tuvalu                                 51.6
##  6 Niue                                   50  
##  7 Tonga                                  48.2
##  8 Samoa                                  47.3
##  9 Kiribati                               46  
## 10 Federated States of Micronesia         45.8
## # … with 181 more rows

Load cardiovascular disease rate

tab_CVD_rate_raw <- owid("cardiovascular-disease-death-rates")
df_CVD_rate <- tab_CVD_rate_raw |>
  rename(Country =entity, cvd_death_rate="Deaths - Cardiovascular diseases - Sex: Both - Age: Age-standardized (Rate)") |>
  group_by(Country) |>
  filter(year==max(year), !is.na(cvd_death_rate)) |>
  select(Country, cvd_death_rate) 

df_CVD_rate

## # A tibble: 228 × 2
## # Groups:   Country [228]
##    Country              cvd_death_rate
##    <chr>                         <dbl>
##  1 Afghanistan                    583.
##  2 African Region (WHO)           277.
##  3 Albania                        314.
##  4 Algeria                        397.
##  5 American Samoa                 295.
##  6 Andorra                        106.
##  7 Angola                         305.
##  8 Antigua and Barbuda            227.
##  9 Argentina                      184.
## 10 Armenia                        345.
## # … with 218 more rows
…
# join and transform data to create the analysis-ready dataframe 
analysis_df <- left_join(df_covid_rates, df_vax_rates) |>
  left_join(df_above_65)|>
  left_join(df_pop_density)|>
  left_join(df_GDP_per_capita)|>
  left_join(df_obesity_rates)|>
  left_join(df_CVD_rate)

analysis_df[which(is.na(analysis_df$Continent)),]$Continent <- c("Asia","Africa")

# write.csv(analysis_df, "analysis_df.csv")

analysis_df

## # A tibble: 154 × 11
##    Country                Total_cases Total_deaths Pop_millions Continent     fully_vax_count Percent_Over_65   km2 GDP_per_capita Obesi…¹ cvd_d…²
##    <chr>                        <dbl>        <dbl>        <dbl> <chr>                   <dbl>           <dbl> <dbl>          <dbl>   <dbl>   <dbl>
##  1 Peru                       3691213       213714        33.0  South America        28382375            8.05    26           6692    19.7    88.6
##  2 Bulgaria                   1180636        37279         6.93 Europe                2074576           20.1     62          11635    25     541. 
##  3 Bosnia and Herzegovina      379982        15810         3.28 Europe                 846080           16.2     64           6916    17.9   344. 
##  4 Hungary                    1932788        46661         9.75 Europe                6206878           20.7    104          18773    26.4   302. 
##  5 Georgia                    1662299        16844         3.71 Asia                  1276173           16.8     53           5042    21.7   454  
##  6 North Macedonia             316729         9337         2.07 Europe                 838032           14.2     82           6721    22.4   569. 
##  7 Moldova                     521182        11570         2.62 Europe                1073162           14.0     90           5315    18.9   405. 
##  8 Croatia                    1160253        16124         4.05 Europe                2250364           21.1     72          17399    24.4   266. 
##  9 Czech Republic             3943792        40334        10.7  Europe                6891491           20.2    133          26379    26     232. 
## 10 Slovakia                   2559088        20163         5.46 Europe                2577827           17.0    111          21088    20.5   299. 
## # … with 144 more rows, and abbreviated variable names ¹​Obesity_rate, ²​cvd_death_rate
…
